<svg width="32" height="32" viewBox="0 0 32 32" fill="none" xmlns="http://www.w3.org/2000/svg">
<path d="M22.9405 6.25262L22.9345 25.9853L26.6669 26.4V6.66667L22.9405 6.25262ZM22.9405 6.25262L19.7335 7.20001M19.7335 7.20001L19.7336 26.9333M19.7335 7.20001L16.0071 6.78595L16.0012 26.5186L19.7336 26.9333M12.2668 5.06668V24.8M12.2668 5.06668L16.0001 5.48149V25.2148L12.2668 24.8M12.2668 5.06668L9.06683 6.13751M12.2668 24.8L9.0668 25.7482M9.0668 25.7482V6.01483L5.3335 5.60001V25.3333L9.0668 25.7482ZM19.7336 26.9333L22.9335 25.8667" stroke="#2C2F34" stroke-width="1.5"/>
</svg>
