<svg width="42" height="20" viewBox="0 0 42 20" fill="none" xmlns="http://www.w3.org/2000/svg">
<path d="M24.2663 10.9953C23.1281 10.4408 21.6172 9.5079 21.6384 7.83634C21.6552 5.57783 23.743 4 26.7112 4C27.8683 4 28.7978 4.25219 29.5209 4.51553L28.9931 6.97601C27.6485 6.3567 26.4623 6.40022 26.0327 6.45713C25.1646 6.56983 24.7684 7.01283 24.7584 7.42793C24.7467 7.97801 25.4256 8.33447 26.2413 8.76273C27.4559 9.40043 28.9737 10.1973 28.9663 12.0298C28.9552 14.4434 26.8919 16 23.7385 16C22.395 15.9877 21.0995 15.7065 20.3998 15.384L20.9433 12.841C20.9621 12.8498 20.9811 12.8587 21.0002 12.8676C21.6885 13.1898 22.5585 13.5969 24.0264 13.5741C24.8912 13.5607 25.8151 13.217 25.824 12.4382C25.8285 11.9293 25.4357 11.5644 24.2663 10.9953Z" fill="url(#paint0_linear)"/>
<path fill-rule="evenodd" clip-rule="evenodd" d="M34.5925 4.21201C34.0167 4.21201 33.5313 4.54789 33.3148 5.06342L28.8101 15.8192H31.9613L32.5884 14.0863H36.4393L36.803 15.8192H39.5804L37.1568 4.21201H34.5925ZM35.0333 7.34759L35.9427 11.7062H33.4521L35.0333 7.34759Z" fill="url(#paint1_linear)"/>
<path d="M17.8177 4.21201L15.3338 15.8192H18.3366L20.8194 4.21201H17.8177Z" fill="url(#paint2_linear)"/>
<path d="M10.2499 12.1123L13.3755 4.21201H16.5289L11.6637 15.8192H8.49022L6.09558 6.55644C5.95052 5.98624 5.82442 5.77646 5.38254 5.53654C4.66058 5.14376 3.46883 4.77664 2.41992 4.549L2.49134 4.21201H7.60088C8.25143 4.21201 8.83726 4.64497 8.98567 5.39483L10.2499 12.1123Z" fill="url(#paint3_linear)"/>
<defs>
<linearGradient id="paint0_linear" x1="35.3532" y1="-8.16289" x2="-1.50878" y2="5.41786" gradientUnits="userSpaceOnUse">
<stop offset="0.0785566" stop-color="#254AA5"/>
<stop offset="0.900516" stop-color="#222357"/>
</linearGradient>
<linearGradient id="paint1_linear" x1="35.3532" y1="-8.16289" x2="-1.50878" y2="5.41786" gradientUnits="userSpaceOnUse">
<stop offset="0.0785566" stop-color="#254AA5"/>
<stop offset="0.900516" stop-color="#222357"/>
</linearGradient>
<linearGradient id="paint2_linear" x1="35.3532" y1="-8.16289" x2="-1.50878" y2="5.41786" gradientUnits="userSpaceOnUse">
<stop offset="0.0785566" stop-color="#254AA5"/>
<stop offset="0.900516" stop-color="#222357"/>
</linearGradient>
<linearGradient id="paint3_linear" x1="35.3532" y1="-8.16289" x2="-1.50878" y2="5.41786" gradientUnits="userSpaceOnUse">
<stop offset="0.0785566" stop-color="#254AA5"/>
<stop offset="0.900516" stop-color="#222357"/>
</linearGradient>
</defs>
</svg>
