<svg width="145" height="144" viewBox="0 0 145 144" fill="none" xmlns="http://www.w3.org/2000/svg">
<path d="M92.3999 20.5C92.3999 21.3284 90.1613 22 87.3999 22C86.2743 22 85.2356 21.8884 84.3999 21.7001M92.3999 20.5C92.3999 19.6716 90.1613 19 87.3999 19C86.2743 19 84.8391 19.3117 84.0034 19.5M92.3999 20.5L89.3999 49M89.3999 49V61.5H84.3999M89.3999 49H84.3999M84.3999 20.5V123.5M84.3999 20.5C84.3999 22.9853 77.2365 25 68.3999 25C59.5633 25 52.3999 22.9853 52.3999 20.5C52.3999 18.0147 59.5633 16 68.3999 16C77.2365 16 84.3999 18.0147 84.3999 20.5ZM52.3999 21V123.5M87.8999 61.5V67.5H84.3999M84.3999 123C84.3999 125.761 77.2365 128 68.3999 128C59.5633 128 52.3999 125.761 52.3999 123H84.3999ZM84.3999 114C84.3999 116.761 77.2365 119 68.3999 119C59.5633 119 52.3999 116.761 52.3999 114H84.3999ZM84.3999 29C84.3999 31.7614 77.2365 34 68.3999 34C59.5633 34 52.3999 31.7614 52.3999 29H84.3999ZM74.3999 20.5C74.3999 20.7761 71.7136 21 68.3999 21C65.0862 21 62.3999 20.7761 62.3999 20.5C62.3999 20.2239 65.0862 20 68.3999 20C71.7136 20 74.3999 20.2239 74.3999 20.5Z" stroke="#395379" stroke-width="2"/>
</svg>
