<svg width="21" height="20" viewBox="0 0 21 20" xmlns="http://www.w3.org/2000/svg">
<path d="M12.3333 9.16671H5.5V10.8334H12.3333L9 14.1667H11.3333L15.5 10L11.3333 5.83337H9L12.3333 9.16671Z" />
</svg>
