<svg width="96" height="96" viewBox="0 0 96 96" fill="none" xmlns="http://www.w3.org/2000/svg">
<path d="M76.2842 19.7157L77.6984 18.3015L77.6984 18.3015L76.2842 19.7157ZM19.7157 19.7157L18.3015 18.3015L18.3015 18.3015L19.7157 19.7157ZM19.7157 76.2842L18.3015 77.6984L18.3015 77.6984L19.7157 76.2842ZM33.4142 46.5858C32.6332 45.8047 31.3668 45.8047 30.5858 46.5858C29.8047 47.3668 29.8047 48.6332 30.5858 49.4142L33.4142 46.5858ZM44 60L42.5858 61.4142C43.3668 62.1953 44.6332 62.1953 45.4142 61.4142L44 60ZM69.4142 37.4142C70.1953 36.6332 70.1953 35.3668 69.4142 34.5858C68.6332 33.8047 67.3668 33.8047 66.5858 34.5858L69.4142 37.4142ZM48 90C59.5973 90 70.1001 85.2967 77.6984 77.6984L74.87 74.87C67.9911 81.7489 58.4939 86 48 86V90ZM77.6984 77.6984C85.2967 70.1001 90 59.5973 90 48H86C86 58.4939 81.7489 67.9911 74.87 74.87L77.6984 77.6984ZM90 48C90 36.4027 85.2967 25.8999 77.6984 18.3015L74.87 21.1299C81.7489 28.0089 86 37.5061 86 48H90ZM77.6984 18.3015C70.1001 10.7032 59.5973 6 48 6V10C58.4939 10 67.9911 14.2511 74.87 21.1299L77.6984 18.3015ZM48 6C36.4027 6 25.8999 10.7032 18.3015 18.3015L21.1299 21.1299C28.0089 14.2511 37.5061 10 48 10V6ZM18.3015 18.3015C10.7032 25.8999 6 36.4027 6 48H10C10 37.5061 14.2511 28.0089 21.1299 21.1299L18.3015 18.3015ZM6 48C6 59.5973 10.7032 70.1001 18.3015 77.6984L21.1299 74.87C14.2511 67.9911 10 58.4939 10 48H6ZM18.3015 77.6984C25.8999 85.2967 36.4027 90 48 90V86C37.5061 86 28.0089 81.7489 21.1299 74.87L18.3015 77.6984ZM30.5858 49.4142L42.5858 61.4142L45.4142 58.5858L33.4142 46.5858L30.5858 49.4142ZM45.4142 61.4142L69.4142 37.4142L66.5858 34.5858L42.5858 58.5858L45.4142 61.4142Z" fill="#2E9323"/>
</svg>
