<svg width="32" height="32" viewBox="0 0 32 32"  xmlns="http://www.w3.org/2000/svg">
<path  d="M16 32C24.8366 32 32 24.8366 32 16C32 7.16344 24.8366 0 16 0C7.16344 0 0 7.16344 0 16C0 24.8366 7.16344 32 16 32Z" />
<path fill-rule="evenodd" clip-rule="evenodd" d="M7.1999 10.3999C6.75807 10.3999 6.3999 10.7581 6.3999 11.1999V17.1999C6.3999 19.63 8.36985 21.5999 10.7999 21.5999C13.23 21.5999 15.1999 19.63 15.1999 17.1999C15.1999 17.1124 15.1973 17.0254 15.1923 16.9392C15.4447 16.849 15.7166 16.7999 15.9999 16.7999C16.2833 16.7999 16.5551 16.849 16.8075 16.9392C16.8025 17.0254 16.7999 17.1124 16.7999 17.1999C16.7999 19.63 18.7698 21.5999 21.1999 21.5999C23.63 21.5999 25.5999 19.63 25.5999 17.1999V11.1999C25.5999 10.7581 25.2417 10.3999 24.7999 10.3999C24.3581 10.3999 23.9999 10.7581 23.9999 11.1999V13.8056C23.2391 13.1774 22.2636 12.7999 21.1999 12.7999C19.4186 12.7999 17.8846 13.8584 17.1924 15.3807C16.8158 15.2632 16.4152 15.1999 15.9999 15.1999C15.5846 15.1999 15.184 15.2632 14.8074 15.3807C14.1152 13.8584 12.5812 12.7999 10.7999 12.7999C9.7362 12.7999 8.76065 13.1774 7.9999 13.8056V11.1999C7.9999 10.7581 7.64173 10.3999 7.1999 10.3999ZM13.5999 17.1999C13.5999 15.6535 12.3463 14.3999 10.7999 14.3999C9.2535 14.3999 7.9999 15.6535 7.9999 17.1999C7.9999 18.7463 9.2535 19.9999 10.7999 19.9999C12.3463 19.9999 13.5999 18.7463 13.5999 17.1999ZM21.1999 19.9999C19.6535 19.9999 18.3999 18.7463 18.3999 17.1999C18.3999 15.6535 19.6535 14.3999 21.1999 14.3999C22.7463 14.3999 23.9999 15.6535 23.9999 17.1999C23.9999 18.7463 22.7463 19.9999 21.1999 19.9999Z" fill="white"/>
</svg>
