<svg width="25" height="24" viewBox="0 0 25 24" fill="none" xmlns="http://www.w3.org/2000/svg">
<path d="M12.5 5.24927C5 5.24927 2 12 2 12C2 12 5 18.7493 12.5 18.7493C20 18.7493 23 12 23 12C23 12 20 5.24927 12.5 5.24927Z"/>
<path d="M12.5 15.7501C14.5711 15.7501 16.25 14.0711 16.25 12.0001C16.25 9.92899 14.5711 8.25006 12.5 8.25006C10.4289 8.25006 8.75 9.92899 8.75 12.0001C8.75 14.0711 10.4289 15.7501 12.5 15.7501Z" />
</svg>
