<svg width="21" height="20" viewBox="0 0 21 20"  xmlns="http://www.w3.org/2000/svg">
<path d="M4.08333 17.5H3.33333V18.25H4.08333V17.5ZM16.5833 17.5V18.25H17.3333V17.5H16.5833ZM10.3333 2.5L10.8019 1.91435L10.3333 1.53953L9.86481 1.91435L10.3333 2.5ZM1.53148 8.58102C1.20803 8.83977 1.15559 9.31174 1.41435 9.63519C1.67311 9.95863 2.14507 10.0111 2.46852 9.75232L1.53148 8.58102ZM18.1981 9.75232C18.5216 10.0111 18.9936 9.95863 19.2523 9.63519C19.5111 9.31174 19.4586 8.83977 19.1352 8.58102L18.1981 9.75232ZM8.25 12.0833V11.3333C7.83579 11.3333 7.5 11.6691 7.5 12.0833H8.25ZM8.25 17.5H7.5C7.5 17.9142 7.83579 18.25 8.25 18.25V17.5ZM12.4167 17.5V18.25C12.8309 18.25 13.1667 17.9142 13.1667 17.5H12.4167ZM12.4167 12.0833H13.1667C13.1667 11.6691 12.8309 11.3333 12.4167 11.3333V12.0833ZM3.33333 7.5V17.5H4.83333V7.5H3.33333ZM4.08333 18.25H16.5833V16.75H4.08333V18.25ZM17.3333 17.5V7.5H15.8333V17.5H17.3333ZM17.0519 6.91435L10.8019 1.91435L9.86481 3.08565L16.1148 8.08565L17.0519 6.91435ZM9.86481 1.91435L3.61481 6.91435L4.55185 8.08565L10.8019 3.08565L9.86481 1.91435ZM3.61481 6.91435L1.53148 8.58102L2.46852 9.75232L4.55185 8.08565L3.61481 6.91435ZM2.46852 9.75232L10.8019 3.08565L9.86481 1.91435L1.53148 8.58102L2.46852 9.75232ZM9.86481 3.08565L18.1981 9.75232L19.1352 8.58102L10.8019 1.91435L9.86481 3.08565ZM19.1352 8.58102L17.0519 6.91435L16.1148 8.08565L18.1981 9.75232L19.1352 8.58102ZM7.5 12.0833V17.5H9V12.0833H7.5ZM8.25 18.25H12.4167V16.75H8.25V18.25ZM13.1667 17.5V12.0833H11.6667V17.5H13.1667ZM12.4167 11.3333H8.25V12.8333H12.4167V11.3333Z" />
</svg>
