<svg width="32" height="20" viewBox="0 0 32 20" fill="none" xmlns="http://www.w3.org/2000/svg">
<path d="M19.4993 16.2892H12.5V3.71045H19.4993V16.2892Z" fill="#6C6BBD"/>
<path d="M12.9444 9.99981C12.9444 7.44812 14.1392 5.17514 15.9996 3.71037C14.5913 2.59992 12.8495 1.99728 11.056 2.00001C6.63817 2.00001 3.05713 5.58157 3.05713 9.99981C3.05713 14.4181 6.63817 17.9997 11.0559 17.9997C12.8494 18.0024 14.5913 17.3998 15.9996 16.2893C14.1392 14.8245 12.9444 12.5515 12.9444 9.99981Z" fill="#EB001B"/>
<path d="M28.9425 10.0003C28.9425 14.4185 25.3614 18.0002 20.9437 18.0002C19.1501 18.0029 17.4081 17.4002 15.9995 16.2897C17.8601 14.825 19.0553 12.552 19.0553 10.0003C19.0553 7.4486 17.8601 5.17576 15.9996 3.71099C17.4082 2.60056 19.1502 1.99789 20.9437 2.0005C25.3614 2.0005 28.9426 5.58206 28.9426 10.0003" fill="#0099DF"/>
</svg>
