<svg width="24" height="24" viewBox="0 0 24 24"  xmlns="http://www.w3.org/2000/svg">
<path d="M12.3058 2.36822L12.0001 2.13198L11.6944 2.36822L1.70149 10.09L1.09004 9.29873L12.0001 0.868212L22.9102 9.29873L22.2988 10.09L12.3058 2.36822ZM11 14.5H10.5V15V21.5H2.5V12.75L12 5.625L21.5 12.75V21.5H13.5V15V14.5H13H11ZM12.3 7.1L12 6.875L11.7 7.1L3.7 13.1L3.5 13.25V13.5V20V20.5H4H9H9.5V20V13.5H14.5V20V20.5H15H20H20.5V20V13.5V13.25L20.3 13.1L12.3 7.1Z" />
</svg>
