<svg width="20" height="20" viewBox="0 0 20 20" fill="none" xmlns="http://www.w3.org/2000/svg">
<g clip-path="url(#clip0)">
<path d="M12.8875 8.17422C13.1803 7.88133 13.1803 7.40646 12.8875 7.11356C12.5946 6.82067 12.1197 6.82067 11.8268 7.11356L12.8875 8.17422ZM7.11275 11.8276C6.81986 12.1205 6.81986 12.5954 7.11275 12.8883C7.40564 13.1812 7.88052 13.1812 8.17341 12.8883L7.11275 11.8276ZM8.17341 7.11356C7.88052 6.82067 7.40564 6.82067 7.11275 7.11356C6.81986 7.40646 6.81986 7.88133 7.11275 8.17422L8.17341 7.11356ZM11.8268 12.8883C12.1197 13.1812 12.5946 13.1812 12.8875 12.8883C13.1803 12.5954 13.1803 12.1205 12.8875 11.8276L11.8268 12.8883ZM10.0001 19.0843C15.0167 19.0843 19.0834 15.0175 19.0834 10.0009H17.5834C17.5834 14.1891 14.1882 17.5843 10.0001 17.5843V19.0843ZM19.0834 10.0009C19.0834 4.98435 15.0167 0.917603 10.0001 0.917603V2.4176C14.1882 2.4176 17.5834 5.81277 17.5834 10.0009H19.0834ZM10.0001 0.917603C4.98349 0.917603 0.916748 4.98435 0.916748 10.0009H2.41675C2.41675 5.81277 5.81192 2.4176 10.0001 2.4176V0.917603ZM0.916748 10.0009C0.916748 15.0175 4.98349 19.0843 10.0001 19.0843V17.5843C5.81192 17.5843 2.41675 14.1891 2.41675 10.0009H0.916748ZM11.8268 7.11356L7.11275 11.8276L8.17341 12.8883L12.8875 8.17422L11.8268 7.11356ZM7.11275 8.17422L11.8268 12.8883L12.8875 11.8276L8.17341 7.11356L7.11275 8.17422Z" fill="#E02D2A"/>
</g>
<defs>
<clipPath id="clip0">
<rect width="20" height="20" fill="white" transform="translate(0 0.000732422)"/>
</clipPath>
</defs>
</svg>
