<svg width="20" height="20" viewBox="0 0 20 20" fill="none" xmlns="http://www.w3.org/2000/svg">
<path d="M17.8666 9.20835L10.2082 16.8667C9.27004 17.8049 7.99757 18.332 6.67075 18.332C5.34393 18.332 4.07145 17.8049 3.13325 16.8667C2.19505 15.9285 1.66797 14.656 1.66797 13.3292C1.66797 12.0024 2.19505 10.7299 3.13325 9.79168L10.7916 2.13335C11.417 1.50788 12.2654 1.15649 13.1499 1.15649C14.0345 1.15649 14.8828 1.50788 15.5082 2.13335C16.1337 2.75882 16.4851 3.60713 16.4851 4.49168C16.4851 5.37623 16.1337 6.22455 15.5082 6.85001L7.84158 14.5083C7.52885 14.8211 7.10469 14.9968 6.66242 14.9968C6.22014 14.9968 5.79598 14.8211 5.48325 14.5083C5.17051 14.1956 4.99482 13.7715 4.99482 13.3292C4.99482 12.8869 5.17051 12.4627 5.48325 12.15L12.5582 5.08335" />
</svg>
