<svg width="24" height="24" viewBox="0 0 24 24" fill="none" xmlns="http://www.w3.org/2000/svg">
<path d="M12.6213 7.87866C13.0118 8.26918 13.645 8.26918 14.0355 7.87866C14.426 7.48813 14.426 6.85497 14.0355 6.46444L12.6213 7.87866ZM6.96447 6.46442C6.57393 6.85493 6.57391 7.48809 6.96442 7.87863C7.35493 8.26917 7.98809 8.26919 8.37863 7.87868L6.96447 6.46442ZM17.318 15.9038C16.9275 15.5133 16.2943 15.5133 15.9038 15.9038C15.5133 16.2943 15.5133 16.9275 15.9038 17.318L17.318 15.9038ZM20.1464 21.5607C20.537 21.9512 21.1701 21.9512 21.5607 21.5607C21.9512 21.1701 21.9512 20.537 21.5607 20.1464L20.1464 21.5607ZM10.5 20C15.7467 20 20 15.7467 20 10.5H18C18 14.6421 14.6421 18 10.5 18V20ZM20 10.5C20 5.25332 15.7467 1 10.5 1V3C14.6421 3 18 6.35788 18 10.5H20ZM10.5 1C5.25332 1 1 5.25332 1 10.5H3C3 6.35788 6.35788 3 10.5 3V1ZM1 10.5C1 15.7467 5.25332 20 10.5 20V18C6.35788 18 3 14.6421 3 10.5H1ZM14.0355 6.46444C13.1318 5.56072 11.8804 5 10.5 5V7C11.3287 7 12.0773 7.33468 12.6213 7.87866L14.0355 6.46444ZM10.5 5C9.11959 5 7.86823 5.56072 6.96447 6.46442L8.37863 7.87868C8.92267 7.33468 9.67131 7 10.5 7V5ZM15.9038 17.318L20.1464 21.5607L21.5607 20.1464L17.318 15.9038L15.9038 17.318Z" fill="#395379"/>
</svg>
