<svg width="24" height="24" viewBox="0 0 24 24"  xmlns="http://www.w3.org/2000/svg">
<path d="M12.9407 6.85371C12.1665 7.62794 12.1665 8.8832 12.9407 9.65742L14.3426 11.0593C14.7144 11.4311 15.2186 11.6399 15.7444 11.6399C16.2702 11.6399 16.7745 11.4311 17.1463 11.0593L19.9705 8.23504C20.1774 9.72904 19.7039 11.3054 18.5481 12.4611C17.1383 13.8709 15.1026 14.2668 13.3504 13.6471C12.6302 13.3924 11.8277 13.5741 11.2875 14.1143L3.80386 21.5983L5.20556 23L12.6894 15.5162C15.1385 16.3824 17.9828 15.8302 19.95 13.863C22.152 11.661 22.581 8.36019 21.2325 5.74462C20.9559 5.20814 20.2438 5.15802 19.817 5.58482L15.7444 9.65742L14.3426 8.25557L18.4152 4.18296C18.842 3.75616 18.7919 3.04413 18.2554 2.76754C15.6398 1.41902 12.339 1.84802 10.137 4.05001C8.16978 6.01724 7.61764 8.86149 8.48382 11.3106L1 18.7944L2.40185 20.1963L9.88568 12.7125C10.4259 12.1723 10.6076 11.3698 10.3529 10.6496C9.73319 8.89738 10.1291 6.86167 11.5389 5.45187C12.6946 4.29611 14.271 3.82257 15.765 4.02948L12.9407 6.85371Z" />
<path d="M12.9407 6.85371C12.1665 7.62794 12.1665 8.8832 12.9407 9.65742L14.3426 11.0593C14.7144 11.4311 15.2186 11.6399 15.7444 11.6399C16.2702 11.6399 16.7745 11.4311 17.1463 11.0593L19.9705 8.23504C20.1774 9.72904 19.7039 11.3054 18.5481 12.4611C17.1383 13.8709 15.1026 14.2668 13.3504 13.6471C12.6302 13.3924 11.8277 13.5741 11.2875 14.1143L3.80386 21.5983L5.20556 23L12.6894 15.5162C15.1385 16.3824 17.9828 15.8302 19.95 13.863C22.152 11.661 22.581 8.36019 21.2325 5.74462C20.9559 5.20814 20.2438 5.15802 19.817 5.58482L15.7444 9.65742L14.3426 8.25557L18.4152 4.18296C18.842 3.75616 18.7919 3.04413 18.2554 2.76754C15.6398 1.41902 12.339 1.84802 10.137 4.05001C8.16978 6.01724 7.61764 8.86149 8.48382 11.3106L1 18.7944L2.40185 20.1963L9.88568 12.7125C10.4259 12.1723 10.6076 11.3698 10.3529 10.6496C9.73319 8.89738 10.1291 6.86167 11.5389 5.45187C12.6946 4.29611 14.271 3.82257 15.765 4.02948L12.9407 6.85371Z" />
</svg>
