<svg width="20" height="20" viewBox="0 0 20 20" fill="none" xmlns="http://www.w3.org/2000/svg">
<path d="M13.4167 6.66667C13.4167 8.55364 11.887 10.0833 10 10.0833C8.11303 10.0833 6.58333 8.55364 6.58333 6.66667C6.58333 4.77969 8.11303 3.25 10 3.25C11.887 3.25 13.4167 4.77969 13.4167 6.66667ZM10 13.25C11.2951 13.25 12.5044 12.8754 13.5234 12.2287C15.0136 12.9908 16.138 14.3666 16.5636 16.0203C16.6248 16.2579 16.6716 16.5014 16.703 16.75H3.297C3.32841 16.5014 3.3752 16.2579 3.43636 16.0203C3.86199 14.3666 4.98642 12.9908 6.47659 12.2287C7.49559 12.8754 8.70491 13.25 10 13.25Z"/>
</svg>
